<?xml version="1.0" encoding="UTF-8" standalone="no"?><svg xmlns="http://www.w3.org/2000/svg" xmlns:xlink="http://www.w3.org/1999/xlink" contentScriptType="application/ecmascript" contentStyleType="text/css" height="579px" preserveAspectRatio="none" style="width:760px;height:579px;" version="1.1" viewBox="0 0 760 579" width="760px" zoomAndPan="magnify"><defs><filter height="300%" id="f137gghh1g8kuq" width="300%" x="-1" y="-1"><feGaussianBlur result="blurOut" stdDeviation="2.0"/><feColorMatrix in="blurOut" result="blurOut2" type="matrix" values="0 0 0 0 0 0 0 0 0 0 0 0 0 0 0 0 0 0 .4 0"/><feOffset dx="4.0" dy="4.0" in="blurOut2" result="blurOut3"/><feBlend in="SourceGraphic" in2="blurOut3" mode="normal"/></filter></defs><g><!--class AiCollector--><rect fill="#FEFECE" filter="url(#f137gghh1g8kuq)" height="48" id="AiCollector" style="stroke: #A80036; stroke-width: 1.5;" width="98" x="6" y="251.5"/><ellipse cx="21" cy="267.5" fill="#ADD1B2" rx="11" ry="11" style="stroke: #A80036; stroke-width: 1.0;"/><path d="M23.9688,273.1406 Q23.3906,273.4375 22.75,273.5781 Q22.1094,273.7344 21.4063,273.7344 Q18.9063,273.7344 17.5781,272.0938 Q16.2656,270.4375 16.2656,267.3125 Q16.2656,264.1875 17.5781,262.5313 Q18.9063,260.875 21.4063,260.875 Q22.1094,260.875 22.75,261.0313 Q23.4063,261.1875 23.9688,261.4844 L23.9688,264.2031 Q23.3438,263.625 22.75,263.3594 Q22.1563,263.0781 21.5313,263.0781 Q20.1875,263.0781 19.5,264.1563 Q18.8125,265.2188 18.8125,267.3125 Q18.8125,269.4063 19.5,270.4844 Q20.1875,271.5469 21.5313,271.5469 Q22.1563,271.5469 22.75,271.2813 Q23.3438,271 23.9688,270.4219 L23.9688,273.1406 Z "/><text fill="#000000" font-family="sans-serif" font-size="12" lengthAdjust="spacingAndGlyphs" textLength="66" x="35" y="271.6543">AiCollector</text><line style="stroke: #A80036; stroke-width: 1.5;" x1="7" x2="103" y1="283.5" y2="283.5"/><line style="stroke: #A80036; stroke-width: 1.5;" x1="7" x2="103" y1="291.5" y2="291.5"/><!--class AiContainer--><rect fill="#FEFECE" filter="url(#f137gghh1g8kuq)" height="73.6094" id="AiContainer" style="stroke: #A80036; stroke-width: 1.5;" width="104" x="164" y="238.5"/><ellipse cx="179" cy="254.5" fill="#ADD1B2" rx="11" ry="11" style="stroke: #A80036; stroke-width: 1.0;"/><path d="M181.9688,260.1406 Q181.3906,260.4375 180.75,260.5781 Q180.1094,260.7344 179.4063,260.7344 Q176.9063,260.7344 175.5781,259.0938 Q174.2656,257.4375 174.2656,254.3125 Q174.2656,251.1875 175.5781,249.5313 Q176.9063,247.875 179.4063,247.875 Q180.1094,247.875 180.75,248.0313 Q181.4063,248.1875 181.9688,248.4844 L181.9688,251.2031 Q181.3438,250.625 180.75,250.3594 Q180.1563,250.0781 179.5313,250.0781 Q178.1875,250.0781 177.5,251.1563 Q176.8125,252.2188 176.8125,254.3125 Q176.8125,256.4063 177.5,257.4844 Q178.1875,258.5469 179.5313,258.5469 Q180.1563,258.5469 180.75,258.2813 Q181.3438,258 181.9688,257.4219 L181.9688,260.1406 Z "/><text fill="#000000" font-family="sans-serif" font-size="12" lengthAdjust="spacingAndGlyphs" textLength="72" x="193" y="258.6543">AiContainer</text><line style="stroke: #A80036; stroke-width: 1.5;" x1="165" x2="267" y1="270.5" y2="270.5"/><text fill="#000000" font-family="sans-serif" font-size="11" lengthAdjust="spacingAndGlyphs" textLength="88" x="170" y="284.7104">PlayerSide side</text><line style="stroke: #A80036; stroke-width: 1.5;" x1="165" x2="267" y1="291.3047" y2="291.3047"/><ellipse cx="175" cy="303.207" fill="#84BE84" rx="3" ry="3" style="stroke: #038048; stroke-width: 1.0;"/><text fill="#000000" font-family="sans-serif" font-size="11" lengthAdjust="spacingAndGlyphs" textLength="74" x="184" y="305.5151">void update()</text><!--class AiGroup--><rect fill="#FEFECE" filter="url(#f137gghh1g8kuq)" height="60.8047" id="AiGroup" style="stroke: #A80036; stroke-width: 1.5;" width="110" x="375.5" y="8"/><ellipse cx="403.55" cy="24" fill="#ADD1B2" rx="11" ry="11" style="stroke: #A80036; stroke-width: 1.0;"/><path d="M406.5188,29.6406 Q405.9406,29.9375 405.3,30.0781 Q404.6594,30.2344 403.9563,30.2344 Q401.4563,30.2344 400.1281,28.5938 Q398.8156,26.9375 398.8156,23.8125 Q398.8156,20.6875 400.1281,19.0313 Q401.4563,17.375 403.9563,17.375 Q404.6594,17.375 405.3,17.5313 Q405.9563,17.6875 406.5188,17.9844 L406.5188,20.7031 Q405.8938,20.125 405.3,19.8594 Q404.7063,19.5781 404.0813,19.5781 Q402.7375,19.5781 402.05,20.6563 Q401.3625,21.7188 401.3625,23.8125 Q401.3625,25.9063 402.05,26.9844 Q402.7375,28.0469 404.0813,28.0469 Q404.7063,28.0469 405.3,27.7813 Q405.8938,27.5 406.5188,26.9219 L406.5188,29.6406 Z "/><text fill="#000000" font-family="sans-serif" font-size="12" lengthAdjust="spacingAndGlyphs" textLength="49" x="420.45" y="28.1543">AiGroup</text><line style="stroke: #A80036; stroke-width: 1.5;" x1="376.5" x2="484.5" y1="40" y2="40"/><text fill="#000000" font-family="sans-serif" font-size="11" lengthAdjust="spacingAndGlyphs" textLength="98" x="381.5" y="54.2104">Moveable childs[]</text><line style="stroke: #A80036; stroke-width: 1.5;" x1="376.5" x2="484.5" y1="60.8047" y2="60.8047"/><!--class AiMapScan--><rect fill="#FEFECE" filter="url(#f137gghh1g8kuq)" height="99.2188" id="AiMapScan" style="stroke: #A80036; stroke-width: 1.5;" width="132" x="364.5" y="104"/><ellipse cx="393.9" cy="120" fill="#ADD1B2" rx="11" ry="11" style="stroke: #A80036; stroke-width: 1.0;"/><path d="M396.8688,125.6406 Q396.2906,125.9375 395.65,126.0781 Q395.0094,126.2344 394.3063,126.2344 Q391.8063,126.2344 390.4781,124.5938 Q389.1656,122.9375 389.1656,119.8125 Q389.1656,116.6875 390.4781,115.0313 Q391.8063,113.375 394.3063,113.375 Q395.0094,113.375 395.65,113.5313 Q396.3063,113.6875 396.8688,113.9844 L396.8688,116.7031 Q396.2438,116.125 395.65,115.8594 Q395.0563,115.5781 394.4313,115.5781 Q393.0875,115.5781 392.4,116.6563 Q391.7125,117.7188 391.7125,119.8125 Q391.7125,121.9063 392.4,122.9844 Q393.0875,124.0469 394.4313,124.0469 Q395.0563,124.0469 395.65,123.7813 Q396.2438,123.5 396.8688,122.9219 L396.8688,125.6406 Z "/><text fill="#000000" font-family="sans-serif" font-size="12" lengthAdjust="spacingAndGlyphs" textLength="68" x="411.1" y="124.1543">AiMapScan</text><line style="stroke: #A80036; stroke-width: 1.5;" x1="365.5" x2="495.5" y1="136" y2="136"/><text fill="#000000" font-family="sans-serif" font-size="11" lengthAdjust="spacingAndGlyphs" textLength="81" x="370.5" y="150.2104">MapBase map</text><line style="stroke: #A80036; stroke-width: 1.5;" x1="365.5" x2="495.5" y1="156.8047" y2="156.8047"/><ellipse cx="375.5" cy="168.707" fill="#84BE84" rx="3" ry="3" style="stroke: #038048; stroke-width: 1.0;"/><text fill="#000000" font-family="sans-serif" font-size="11" lengthAdjust="spacingAndGlyphs" textLength="93" x="384.5" y="171.0151">void map_scan()</text><ellipse cx="375.5" cy="181.5117" fill="#84BE84" rx="3" ry="3" style="stroke: #038048; stroke-width: 1.0;"/><text fill="#000000" font-family="sans-serif" font-size="11" lengthAdjust="spacingAndGlyphs" textLength="106" x="384.5" y="183.8198">void enemy_scan()</text><ellipse cx="375.5" cy="194.3164" fill="#84BE84" rx="3" ry="3" style="stroke: #038048; stroke-width: 1.0;"/><text fill="#000000" font-family="sans-serif" font-size="11" lengthAdjust="spacingAndGlyphs" textLength="95" x="384.5" y="196.6245">void build_scan()</text><!--class AiMoney--><rect fill="#FEFECE" filter="url(#f137gghh1g8kuq)" height="73.6094" id="AiMoney" style="stroke: #A80036; stroke-width: 1.5;" width="147" x="357" y="238.5"/><ellipse cx="400.8" cy="254.5" fill="#ADD1B2" rx="11" ry="11" style="stroke: #A80036; stroke-width: 1.0;"/><path d="M403.7688,260.1406 Q403.1906,260.4375 402.55,260.5781 Q401.9094,260.7344 401.2063,260.7344 Q398.7063,260.7344 397.3781,259.0938 Q396.0656,257.4375 396.0656,254.3125 Q396.0656,251.1875 397.3781,249.5313 Q398.7063,247.875 401.2063,247.875 Q401.9094,247.875 402.55,248.0313 Q403.2063,248.1875 403.7688,248.4844 L403.7688,251.2031 Q403.1438,250.625 402.55,250.3594 Q401.9563,250.0781 401.3313,250.0781 Q399.9875,250.0781 399.3,251.1563 Q398.6125,252.2188 398.6125,254.3125 Q398.6125,256.4063 399.3,257.4844 Q399.9875,258.5469 401.3313,258.5469 Q401.9563,258.5469 402.55,258.2813 Q403.1438,258 403.7688,257.4219 L403.7688,260.1406 Z "/><text fill="#000000" font-family="sans-serif" font-size="12" lengthAdjust="spacingAndGlyphs" textLength="51" x="421.2" y="258.6543">AiMoney</text><line style="stroke: #A80036; stroke-width: 1.5;" x1="358" x2="503" y1="270.5" y2="270.5"/><line style="stroke: #A80036; stroke-width: 1.5;" x1="358" x2="503" y1="278.5" y2="278.5"/><ellipse cx="368" cy="290.4023" fill="#84BE84" rx="3" ry="3" style="stroke: #038048; stroke-width: 1.0;"/><text fill="#000000" font-family="sans-serif" font-size="11" lengthAdjust="spacingAndGlyphs" textLength="121" x="377" y="292.7104">add_money(int value)</text><ellipse cx="368" cy="303.207" fill="#84BE84" rx="3" ry="3" style="stroke: #038048; stroke-width: 1.0;"/><text fill="#000000" font-family="sans-serif" font-size="11" lengthAdjust="spacingAndGlyphs" textLength="88" x="377" y="305.5151">set_weights(...)</text><!--class AiMoneySlot--><rect fill="#FEFECE" filter="url(#f137gghh1g8kuq)" height="73.6094" id="AiMoneySlot" style="stroke: #A80036; stroke-width: 1.5;" width="107" x="617.5" y="235.5"/><ellipse cx="632.5" cy="251.5" fill="#ADD1B2" rx="11" ry="11" style="stroke: #A80036; stroke-width: 1.0;"/><path d="M635.4688,257.1406 Q634.8906,257.4375 634.25,257.5781 Q633.6094,257.7344 632.9063,257.7344 Q630.4063,257.7344 629.0781,256.0938 Q627.7656,254.4375 627.7656,251.3125 Q627.7656,248.1875 629.0781,246.5313 Q630.4063,244.875 632.9063,244.875 Q633.6094,244.875 634.25,245.0313 Q634.9063,245.1875 635.4688,245.4844 L635.4688,248.2031 Q634.8438,247.625 634.25,247.3594 Q633.6563,247.0781 633.0313,247.0781 Q631.6875,247.0781 631,248.1563 Q630.3125,249.2188 630.3125,251.3125 Q630.3125,253.4063 631,254.4844 Q631.6875,255.5469 633.0313,255.5469 Q633.6563,255.5469 634.25,255.2813 Q634.8438,255 635.4688,254.4219 L635.4688,257.1406 Z "/><text fill="#000000" font-family="sans-serif" font-size="12" lengthAdjust="spacingAndGlyphs" textLength="75" x="646.5" y="255.6543">AiMoneySlot</text><line style="stroke: #A80036; stroke-width: 1.5;" x1="618.5" x2="723.5" y1="267.5" y2="267.5"/><text fill="#000000" font-family="sans-serif" font-size="11" lengthAdjust="spacingAndGlyphs" textLength="55" x="623.5" y="281.7104">int weight</text><text fill="#000000" font-family="sans-serif" font-size="11" lengthAdjust="spacingAndGlyphs" textLength="56" x="623.5" y="294.5151">int money</text><line style="stroke: #A80036; stroke-width: 1.5;" x1="618.5" x2="723.5" y1="301.1094" y2="301.1094"/><!--class AiChoices--><rect fill="#FEFECE" filter="url(#f137gghh1g8kuq)" height="60.8047" id="AiChoices" style="stroke: #A80036; stroke-width: 1.5;" width="205" x="328" y="348"/><ellipse cx="396.25" cy="364" fill="#ADD1B2" rx="11" ry="11" style="stroke: #A80036; stroke-width: 1.0;"/><path d="M399.2188,369.6406 Q398.6406,369.9375 398,370.0781 Q397.3594,370.2344 396.6563,370.2344 Q394.1563,370.2344 392.8281,368.5938 Q391.5156,366.9375 391.5156,363.8125 Q391.5156,360.6875 392.8281,359.0313 Q394.1563,357.375 396.6563,357.375 Q397.3594,357.375 398,357.5313 Q398.6563,357.6875 399.2188,357.9844 L399.2188,360.7031 Q398.5938,360.125 398,359.8594 Q397.4063,359.5781 396.7813,359.5781 Q395.4375,359.5781 394.75,360.6563 Q394.0625,361.7188 394.0625,363.8125 Q394.0625,365.9063 394.75,366.9844 Q395.4375,368.0469 396.7813,368.0469 Q397.4063,368.0469 398,367.7813 Q398.5938,367.5 399.2188,366.9219 L399.2188,369.6406 Z "/><text fill="#000000" font-family="sans-serif" font-size="12" lengthAdjust="spacingAndGlyphs" textLength="60" x="416.75" y="368.1543">AiChoices</text><line style="stroke: #A80036; stroke-width: 1.5;" x1="329" x2="532" y1="380" y2="380"/><line style="stroke: #A80036; stroke-width: 1.5;" x1="329" x2="532" y1="388" y2="388"/><text fill="#000000" font-family="sans-serif" font-size="11" lengthAdjust="spacingAndGlyphs" textLength="193" x="334" y="402.2104">AiChoiceItem get_item_to_create()</text><!--class AiChoiceItem--><rect fill="#FEFECE" filter="url(#f137gghh1g8kuq)" height="73.6094" id="AiChoiceItem" style="stroke: #A80036; stroke-width: 1.5;" width="156" x="593" y="344.5"/><ellipse cx="627.8" cy="360.5" fill="#ADD1B2" rx="11" ry="11" style="stroke: #A80036; stroke-width: 1.0;"/><path d="M630.7688,366.1406 Q630.1906,366.4375 629.55,366.5781 Q628.9094,366.7344 628.2063,366.7344 Q625.7063,366.7344 624.3781,365.0938 Q623.0656,363.4375 623.0656,360.3125 Q623.0656,357.1875 624.3781,355.5313 Q625.7063,353.875 628.2063,353.875 Q628.9094,353.875 629.55,354.0313 Q630.2063,354.1875 630.7688,354.4844 L630.7688,357.2031 Q630.1438,356.625 629.55,356.3594 Q628.9563,356.0781 628.3313,356.0781 Q626.9875,356.0781 626.3,357.1563 Q625.6125,358.2188 625.6125,360.3125 Q625.6125,362.4063 626.3,363.4844 Q626.9875,364.5469 628.3313,364.5469 Q628.9563,364.5469 629.55,364.2813 Q630.1438,364 630.7688,363.4219 L630.7688,366.1406 Z "/><text fill="#000000" font-family="sans-serif" font-size="12" lengthAdjust="spacingAndGlyphs" textLength="80" x="646.2" y="364.6543">AiChoiceItem</text><line style="stroke: #A80036; stroke-width: 1.5;" x1="594" x2="748" y1="376.5" y2="376.5"/><line style="stroke: #A80036; stroke-width: 1.5;" x1="594" x2="748" y1="384.5" y2="384.5"/><ellipse cx="604" cy="396.4023" fill="#84BE84" rx="3" ry="3" style="stroke: #038048; stroke-width: 1.0;"/><text fill="#000000" font-family="sans-serif" font-size="11" lengthAdjust="spacingAndGlyphs" textLength="102" x="613" y="398.7104">bool is_available()</text><ellipse cx="604" cy="409.207" fill="#84BE84" rx="3" ry="3" style="stroke: #038048; stroke-width: 1.0;"/><text fill="#000000" font-family="sans-serif" font-size="11" lengthAdjust="spacingAndGlyphs" textLength="130" x="613" y="411.5151">int get_created_count()</text><!--class PlayerSide--><rect fill="#FEFECE" filter="url(#f137gghh1g8kuq)" height="124.8281" id="PlayerSide" style="stroke: #A80036; stroke-width: 1.5;" width="147" x="357" y="444"/><ellipse cx="394.5" cy="460" fill="#ADD1B2" rx="11" ry="11" style="stroke: #A80036; stroke-width: 1.0;"/><path d="M397.4688,465.6406 Q396.8906,465.9375 396.25,466.0781 Q395.6094,466.2344 394.9063,466.2344 Q392.4063,466.2344 391.0781,464.5938 Q389.7656,462.9375 389.7656,459.8125 Q389.7656,456.6875 391.0781,455.0313 Q392.4063,453.375 394.9063,453.375 Q395.6094,453.375 396.25,453.5313 Q396.9063,453.6875 397.4688,453.9844 L397.4688,456.7031 Q396.8438,456.125 396.25,455.8594 Q395.6563,455.5781 395.0313,455.5781 Q393.6875,455.5781 393,456.6563 Q392.3125,457.7188 392.3125,459.8125 Q392.3125,461.9063 393,462.9844 Q393.6875,464.0469 395.0313,464.0469 Q395.6563,464.0469 396.25,463.7813 Q396.8438,463.5 397.4688,462.9219 L397.4688,465.6406 Z "/><text fill="#000000" font-family="sans-serif" font-size="12" lengthAdjust="spacingAndGlyphs" textLength="65" x="413.5" y="464.1543">PlayerSide</text><line style="stroke: #A80036; stroke-width: 1.5;" x1="358" x2="503" y1="476" y2="476"/><line style="stroke: #A80036; stroke-width: 1.5;" x1="358" x2="503" y1="484" y2="484"/><ellipse cx="368" cy="495.9023" fill="#84BE84" rx="3" ry="3" style="stroke: #038048; stroke-width: 1.0;"/><text fill="#000000" font-family="sans-serif" font-size="11" lengthAdjust="spacingAndGlyphs" textLength="83" x="377" y="498.2104">event_money()</text><ellipse cx="368" cy="508.707" fill="#84BE84" rx="3" ry="3" style="stroke: #038048; stroke-width: 1.0;"/><text fill="#000000" font-family="sans-serif" font-size="11" lengthAdjust="spacingAndGlyphs" textLength="108" x="377" y="511.0151">event_create_unit()</text><ellipse cx="368" cy="521.5117" fill="#84BE84" rx="3" ry="3" style="stroke: #038048; stroke-width: 1.0;"/><text fill="#000000" font-family="sans-serif" font-size="11" lengthAdjust="spacingAndGlyphs" textLength="114" x="377" y="523.8198">event_create_build()</text><ellipse cx="368" cy="534.3164" fill="#84BE84" rx="3" ry="3" style="stroke: #038048; stroke-width: 1.0;"/><text fill="#000000" font-family="sans-serif" font-size="11" lengthAdjust="spacingAndGlyphs" textLength="92" x="377" y="536.6245">event_upgrade()</text><ellipse cx="368" cy="547.1211" fill="#84BE84" rx="3" ry="3" style="stroke: #038048; stroke-width: 1.0;"/><text fill="#000000" font-family="sans-serif" font-size="11" lengthAdjust="spacingAndGlyphs" textLength="115" x="377" y="549.4292">event_destroy_unit()</text><ellipse cx="368" cy="559.9258" fill="#84BE84" rx="3" ry="3" style="stroke: #038048; stroke-width: 1.0;"/><text fill="#000000" font-family="sans-serif" font-size="11" lengthAdjust="spacingAndGlyphs" textLength="121" x="377" y="562.2339">event_destroy_build()</text><!--link AiCollector to AiContainer--><path d="M117.361,275.5 C132.6997,275.5 148.9653,275.5 163.7696,275.5 " fill="none" id="AiCollector-AiContainer" style="stroke: #A80036; stroke-width: 1.0;"/><polygon fill="#A80036" points="104.1801,275.5,110.1801,279.5,116.1801,275.5,110.1801,271.5,104.1801,275.5" style="stroke: #A80036; stroke-width: 1.0;"/><text fill="#000000" font-family="sans-serif" font-size="13" lengthAdjust="spacingAndGlyphs" textLength="8" x="111.9909" y="288.6782">1</text><text fill="#000000" font-family="sans-serif" font-size="13" lengthAdjust="spacingAndGlyphs" textLength="7" x="148.9325" y="288.6584">*</text><!--link AiContainer to AiGroup--><path d="M235.298,226.2834 C253.7689,184.5263 285.1599,125.3741 328,86.5 C341.6058,74.1538 358.9461,64.423 375.478,57.0442 " fill="none" id="AiContainer-AiGroup" style="stroke: #A80036; stroke-width: 1.0;"/><polygon fill="#A80036" points="230.0946,238.3732,236.1408,234.4433,234.8387,227.3508,228.7925,231.2806,230.0946,238.3732" style="stroke: #A80036; stroke-width: 1.0;"/><text fill="#000000" font-family="sans-serif" font-size="13" lengthAdjust="spacingAndGlyphs" textLength="8" x="223.8927" y="227.5376">1</text><text fill="#000000" font-family="sans-serif" font-size="13" lengthAdjust="spacingAndGlyphs" textLength="7" x="360.6141" y="72.6328">*</text><!--link AiContainer to AiMapScan--><path d="M279.7097,239.2642 C306.3388,224.1185 337.2812,206.5196 364.1817,191.2195 " fill="none" id="AiContainer-AiMapScan" style="stroke: #A80036; stroke-width: 1.0;"/><polygon fill="#A80036" points="268.1983,245.8114,275.3913,246.322,278.6291,239.8786,271.4361,239.3681,268.1983,245.8114" style="stroke: #A80036; stroke-width: 1.0;"/><text fill="#000000" font-family="sans-serif" font-size="13" lengthAdjust="spacingAndGlyphs" textLength="8" x="276.1012" y="254.7948">1</text><text fill="#000000" font-family="sans-serif" font-size="13" lengthAdjust="spacingAndGlyphs" textLength="7" x="349.5453" y="208.2276">*</text><!--link AiContainer to AiMoney--><path d="M281.4469,275.5 C305.3001,275.5 332.4239,275.5 356.9351,275.5 " fill="none" id="AiContainer-AiMoney" style="stroke: #A80036; stroke-width: 1.0;"/><polygon fill="#A80036" points="268.1983,275.5,274.1983,279.5,280.1983,275.5,274.1983,271.5,268.1983,275.5" style="stroke: #A80036; stroke-width: 1.0;"/><text fill="#000000" font-family="sans-serif" font-size="13" lengthAdjust="spacingAndGlyphs" textLength="8" x="276.1012" y="288.6584">1</text><text fill="#000000" font-family="sans-serif" font-size="13" lengthAdjust="spacingAndGlyphs" textLength="7" x="341.9878" y="288.3673">*</text><!--link AiContainer to AiChoices--><path d="M279.8162,307.0918 C295.5412,314.8063 312.3576,322.9974 328,330.5 C339.8705,336.1935 352.5485,342.1946 364.7982,347.9524 " fill="none" id="AiContainer-AiChoices" style="stroke: #A80036; stroke-width: 1.0;"/><polygon fill="#A80036" points="268.0414,301.3046,271.6618,307.541,278.8109,306.5978,275.1905,300.3613,268.0414,301.3046" style="stroke: #A80036; stroke-width: 1.0;"/><text fill="#000000" font-family="sans-serif" font-size="13" lengthAdjust="spacingAndGlyphs" textLength="8" x="275.9222" y="318.0918">1</text><text fill="#000000" font-family="sans-serif" font-size="13" lengthAdjust="spacingAndGlyphs" textLength="7" x="342.6603" y="336.7323">*</text><!--link AiChoices to AiChoiceItem--><path d="M546.3322,379.9449 C562.0324,380.1407 577.8332,380.3378 592.662,380.5228 " fill="none" id="AiChoices-AiChoiceItem" style="stroke: #A80036; stroke-width: 1.0;"/><polygon fill="#A80036" points="533.1912,379.781,539.1408,383.8555,545.1903,379.9307,539.2406,375.8561,533.1912,379.781" style="stroke: #A80036; stroke-width: 1.0;"/><text fill="#000000" font-family="sans-serif" font-size="13" lengthAdjust="spacingAndGlyphs" textLength="8" x="541.0263" y="392.5048">1</text><text fill="#000000" font-family="sans-serif" font-size="13" lengthAdjust="spacingAndGlyphs" textLength="7" x="578.1176" y="393.2151">*</text><!--link AiMoney to AiMoneySlot--><path d="M517.3583,274.4165 C550.7301,274.0002 587.8284,273.5375 617.2096,273.171 " fill="none" id="AiMoney-AiMoneySlot" style="stroke: #A80036; stroke-width: 1.0;"/><polygon fill="#A80036" points="504.2924,274.5795,510.3418,278.5044,516.2915,274.4298,510.242,270.505,504.2924,274.5795" style="stroke: #A80036; stroke-width: 1.0;"/><text fill="#000000" font-family="sans-serif" font-size="13" lengthAdjust="spacingAndGlyphs" textLength="8" x="511.9501" y="287.3198">1</text><text fill="#000000" font-family="sans-serif" font-size="13" lengthAdjust="spacingAndGlyphs" textLength="7" x="602.5112" y="286.371">*</text><!--link AiContainer to PlayerSide--><path d="M239.4884,312.7496 C260.5815,344.722 293.4663,391.108 328,426.5 C333.7936,432.4376 340.0361,438.3191 346.4792,444.0382 " fill="none" id="AiContainer-PlayerSide" style="stroke: #A80036; stroke-width: 1.0;"/><polygon fill="#A80036" points="356.7336,452.8765,354.8002,445.9294,347.6439,445.0421,349.5773,451.9892,356.7336,452.8765" style="stroke: #A80036; stroke-width: 1.0;"/><text fill="#000000" font-family="sans-serif" font-size="13" lengthAdjust="spacingAndGlyphs" textLength="8" x="234.7162" y="332.2715">1</text><text fill="#000000" font-family="sans-serif" font-size="13" lengthAdjust="spacingAndGlyphs" textLength="8" x="341.0785" y="460.4181">1</text><!--
@startuml
left to right direction

class AiCollector {
}
class AiContainer {
	PlayerSide side
	+void update()
}
class AiGroup {
	Moveable childs[]
}
class AiMapScan {
	MapBase map
	+void map_scan()
	+void enemy_scan()
	+void build_scan()
}
class AiMoney {
	+add_money(int value)
	+set_weights(...)
}
class AiMoneySlot {
	int weight
	int money
}
class AiChoices {
	AiChoiceItem get_item_to_create()
}
class AiChoiceItem {
	+bool is_available()
	+int get_created_count()
}
class PlayerSide {
	+event_money()
	+event_create_unit()
	+event_create_build()
	+event_upgrade()
	+event_destroy_unit()
	+event_destroy_build()
}

AiCollector "1" *- - "*" AiContainer
AiContainer "1" *- - "*" AiGroup
AiContainer "1" *- - "*" AiMapScan
AiContainer "1" *- - "*" AiMoney
AiContainer "1" *- - "*" AiChoices
AiChoices "1" *- - "*" AiChoiceItem
AiMoney "1" *- - "*" AiMoneySlot
AiContainer "1" - -* "1" PlayerSide

@enduml

PlantUML version 1.2017.15(Mon Jul 03 18:45:34 CEST 2017)
(GPL source distribution)
Java Runtime: OpenJDK Runtime Environment
JVM: OpenJDK 64-Bit Server VM
Java Version: 11.0.14.1+1-Ubuntu-0ubuntu1.18.04
Operating System: Linux
OS Version: 5.0.0-32-generic
Default Encoding: UTF-8
Language: en
Country: US
--></g></svg>